Peer Assessment I
…
The mean price is a useful statistic to determine the most expensive neighborhoods. The median would also be useful as it would give you some insight about the spread of values. Also useful in gaining insight on spread is the standard variation.

See below for those values for each neighborhood.

ames_train %>% 
  group_by(Neighborhood) %>% 
  summarise(median=median(price, na.rm=TRUE), StD=sd(price, na.rm=TRUE)) %>%
  arrange(desc(median))

## # A tibble: 27 x 3
##    Neighborhood   median       StD
##           <ord>    <dbl>     <dbl>
## 1       StoneBr 340691.5 123459.10
## 2       NridgHt 336860.0 105088.90
## 3       NoRidge 290000.0  35888.97
## 4       GrnHill 280000.0  70710.68
## 5        Timber 232500.0  84029.57
## 6       Somerst 221650.0  65199.49
## 7        Greens 212625.0  29063.42
## 8       Veenker 205750.0  72545.41
## 9       Crawfor 205000.0  71267.56
## 10      CollgCr 195800.0  52786.08
## # ... with 17 more rows
…
